hw_debug/KBD_12_02_2024_restored/simulation/qsim/KBD.msim.vcd
$comment
	File created using the following command:
		vcd file KBD.msim.vcd -direction
$end
$date
	Tue Feb 13 03:30:52 2024
$end
$version
	ModelSim Version 10.5b
$end
$timescale
	1ps
$end

$scope module bitrec_vlg_vec_tst $end
$var reg 1 ! clk $end
$var reg 1 " kbd_clk $end
$var reg 1 # kbd_dat $end
$var reg 1 $ resetN $end
$var wire 1 % dout [7] $end
$var wire 1 & dout [6] $end
$var wire 1 ' dout [5] $end
$var wire 1 ( dout [4] $end
$var wire 1 ) dout [3] $end
$var wire 1 * dout [2] $end
$var wire 1 + dout [1] $end
$var wire 1 , dout [0] $end
$var wire 1 - dout_new $end
$var wire 1 . parity_ok $end

$scope module i1 $end
$var wire 1 / gnd $end
$var wire 1 0 vcc $end
$var wire 1 1 unknown $end
$var tri1 1 2 devclrn $end
$var tri1 1 3 devpor $end
$var tri1 1 4 devoe $end
$var wire 1 5 dout[0]~output_o $end
$var wire 1 6 dout[1]~output_o $end
$var wire 1 7 dout[2]~output_o $end
$var wire 1 8 dout[3]~output_o $end
$var wire 1 9 dout[4]~output_o $end
$var wire 1 : dout[5]~output_o $end
$var wire 1 ; dout[6]~output_o $end
$var wire 1 < dout[7]~output_o $end
$var wire 1 = dout_new~output_o $end
$var wire 1 > parity_ok~output_o $end
$var wire 1 ? clk~input_o $end
$var wire 1 @ kbd_dat~input_o $end
$var wire 1 A resetN~input_o $end
$var wire 1 B kbd_clk~input_o $end
$var wire 1 C Selector4~0_combout $end
$var wire 1 D Selector3~0_combout $end
$var wire 1 E Selector2~0_combout $end
$var wire 1 F Selector1~0_combout $end
$var wire 1 G Selector8~0_combout $end
$var wire 1 H SM_BITREC.CHK_DATA_ST~q $end
$var wire 1 I parity_ok~0_combout $end
$var wire 1 J parity_ok~1_combout $end
$var wire 1 K Selector9~0_combout $end
$var wire 1 L SM_BITREC.NEW_DATA_ST~q $end
$var wire 1 M Selector5~0_combout $end
$var wire 1 N SM_BITREC.IDLE_ST~q $end
$var wire 1 O Equal0~0_combout $end
$var wire 1 P Selector7~0_combout $end
$var wire 1 Q SM_BITREC.HI_CLK_ST~q $end
$var wire 1 R Selector6~0_combout $end
$var wire 1 S SM_BITREC.LOW_CLK_ST~q $end
$var wire 1 T shift_reg[8]~0_combout $end
$var wire 1 U dout[0]~reg0_q $end
$var wire 1 V dout[1]~reg0_q $end
$var wire 1 W dout[2]~reg0_q $end
$var wire 1 X dout[3]~reg0_q $end
$var wire 1 Y dout[4]~reg0_q $end
$var wire 1 Z dout[5]~reg0_q $end
$var wire 1 [ dout[6]~reg0_q $end
$var wire 1 \ dout[7]~reg0_q $end
$var wire 1 ] Selector0~0_combout $end
$var wire 1 ^ dout_new~reg0_q $end
$var wire 1 _ shift_reg [9] $end
$var wire 1 ` shift_reg [8] $end
$var wire 1 a shift_reg [7] $end
$var wire 1 b shift_reg [6] $end
$var wire 1 c shift_reg [5] $end
$var wire 1 d shift_reg [4] $end
$var wire 1 e shift_reg [3] $end
$var wire 1 f shift_reg [2] $end
$var wire 1 g shift_reg [1] $end
$var wire 1 h shift_reg [0] $end
$var wire 1 i cntr [3] $end
$var wire 1 j cntr [2] $end
$var wire 1 k cntr [1] $end
$var wire 1 l cntr [0] $end
$upscope $end
$upscope $end
$enddefinitions $end
#0
$dumpvars
0!
1"
1#
0$
0,
0+
0*
0)
0(
0'
0&
0%
0-
0.
0/
10
x1
12
13
14
05
06
07
08
09
0:
0;
0<
0=
0>
0?
1@
0A
1B
0C
0D
0E
0F
0G
0H
0I
0J
0K
0L
0M
0N
0O
0P
0Q
0R
0S
0T
0U
0V
0W
0X
0Y
0Z
0[
0\
0]
0^
0h
0g
0f
0e
0d
0c
0b
0a
0`
0_
0l
0k
0j
0i
$end
#5000
1!
1?
#10000
0!
0?
#15000
1!
1?
#20000
0!
0?
#25000
1$
1!
1A
1?
#30000
0!
0?
#35000
1!
1?
#40000
0!
0?
#45000
1!
1?
#50000
0!
0?
#55000
1!
1?
#60000
0!
0?
#65000
1!
1?
#70000
0!
0?
#75000
0#
1!
0@
1?
#80000
0!
0?
#85000
1!
1?
#90000
0!
0?
#95000
1!
1?
#100000
0"
0!
0B
0?
1T
1R
1M
#105000
1!
1?
1S
1N
0T
#110000
0!
0?
#115000
1!
1?
#120000
0!
0?
#125000
1"
1!
1B
1?
1T
0R
1P
1C
#130000
0!
0?
#135000
1!
1?
0S
1Q
1l
0T
#140000
0!
0?
#145000
1!
1?
#150000
0"
0!
0B
0?
1R
0P
#155000
1!
1?
1S
0Q
#160000
0!
0?
#165000
1!
1?
#170000
0!
0?
#175000
1"
1!
1B
1?
1T
0R
1P
1D
0C
#180000
0!
0?
#185000
1!
1?
0S
1Q
1k
0l
0T
#190000
0!
0?
#195000
1!
1?
#200000
1#
0"
0!
0B
1@
0?
1R
0P
#205000
1!
1?
1S
0Q
#210000
0!
0?
#215000
1!
1?
#220000
0!
0?
#225000
1"
1!
1B
1?
1T
0R
1P
1C
#230000
0!
0?
#235000
1!
1?
0S
1Q
1l
1_
0T
#240000
0!
0?
#245000
1!
1?
#250000
0#
0"
0!
0B
0@
0?
1R
0P
#255000
1!
1?
1S
0Q
#260000
0!
0?
#265000
1!
1?
#270000
0!
0?
#275000
1"
1!
1B
1?
1T
0R
1P
1E
0D
0C
#280000
0!
0?
#285000
1!
1?
0S
1Q
1j
0k
0l
1`
0_
0T
1I
1J
1>
1.
#290000
0!
0?
#295000
1!
1?
#300000
1#
0"
0!
0B
1@
0?
1R
0P
#305000
1!
1?
1S
0Q
#310000
0!
0?
#315000
1!
1?
#320000
0!
0?
#325000
1"
1!
1B
1?
1T
0R
1P
1C
#330000
0!
0?
#335000
1!
1?
0S
1Q
1l
1a
0`
1_
0T
#340000
0!
0?
#345000
1!
1?
#350000
0"
0!
0B
0?
1R
0P
#355000
1!
1?
1S
0Q
#360000
0!
0?
#365000
1!
1?
#370000
0!
0?
#375000
1"
1!
1B
1?
1T
0R
1P
1D
0C
#380000
0!
0?
#385000
1!
1?
0S
1Q
1k
0l
1b
0a
1`
0T
0I
0J
0>
0.
#390000
0!
0?
#395000
1!
1?
#400000
0#
0"
0!
0B
0@
0?
1R
0P
#405000
1!
1?
1S
0Q
#410000
0!
0?
#415000
1!
1?
#420000
0!
0?
#425000
1"
1!
1B
1?
1T
0R
1P
1C
#430000
0!
0?
#435000
1!
1?
0S
1Q
1l
1c
0b
1a
0_
0T
1I
1J
1>
1.
#440000
0!
0?
#445000
1!
1?
#450000
1#
0"
0!
0B
1@
0?
1R
0P
#455000
1!
1?
1S
0Q
#460000
0!
0?
#465000
1!
1?
#470000
0!
0?
#475000
1"
1!
1B
1?
1T
0R
1P
1F
0E
0D
0C
#480000
0!
0?
#485000
1!
1?
0S
1Q
1i
0j
0k
0l
1d
0c
1b
0`
1_
0T
0I
0J
0>
0.
#490000
0!
0?
#495000
1!
1?
#500000
0#
0"
0!
0B
0@
0?
1R
0P
#505000
1!
1?
1S
0Q
#510000
0!
0?
#515000
1!
1?
#520000
0!
0?
#525000
1"
1!
1B
1?
1T
0R
1P
1C
#530000
0!
0?
#535000
1!
1?
0S
1Q
1l
1e
0d
1c
0a
1`
0_
0T
1I
1J
1>
1.
0J
0>
0.
#540000
0!
0?
#545000
1!
1?
#550000
1#
0"
0!
0B
1@
0?
1R
0P
#555000
1!
1?
1S
0Q
#560000
0!
0?
#565000
1!
1?
#570000
0!
0?
#575000
1"
1!
1B
1?
1T
0R
1P
1D
0C
#580000
0!
0?
#585000
1!
1?
0S
1Q
1k
0l
1f
0e
1d
0b
1a
0`
1_
1O
0T
0I
1J
1>
1.
#590000
0!
0?
#595000
1!
1?
#600000
0"
0!
0B
0?
1R
0P
#605000
1!
1?
1S
0Q
#610000
0!
0?
#615000
1!
1?
#620000
0!
0?
#625000
1"
1!
1B
1?
1T
0R
1G
1C
#630000
0!
0?
#635000
1!
1?
0S
1H
1l
1g
0f
1e
0c
1b
0a
1`
0O
0T
0G
1K
#640000
0!
0?
#645000
1!
1?
1L
0H
1[
1Y
1X
1V
16
18
19
1;
1&
1(
1)
1+
0M
0K
1]
#650000
0!
0?
#655000
1!
1?
0N
0L
1^
1=
1-
0]
0F
0D
0C
#660000
0!
0?
#665000
1!
1?
0i
0k
0l
0^
0=
0-
#670000
0!
0?
#675000
1!
1?
#680000
0!
0?
#685000
1!
1?
#690000
0!
0?
#695000
1!
1?
#700000
0!
0?
#705000
1!
1?
#710000
0!
0?
#715000
1!
1?
#720000
0!
0?
#725000
1!
1?
#730000
0!
0?
#735000
1!
1?
#740000
0!
0?
#745000
1!
1?
#750000
0!
0?
#755000
1!
1?
#760000
0!
0?
#765000
1!
1?
#770000
0!
0?
#775000
1!
1?
#780000
0!
0?
#785000
1!
1?
#790000
0!
0?
#795000
1!
1?
#800000
0!
0?
#805000
1!
1?
#810000
0!
0?
#815000
1!
1?
#820000
0!
0?
#825000
1!
1?
#830000
0!
0?
#835000
1!
1?
#840000
0!
0?
#845000
1!
1?
#850000
0!
0?
#855000
1!
1?
#860000
0!
0?
#865000
1!
1?
#870000
0!
0?
#875000
1!
1?
#880000
0!
0?
#885000
1!
1?
#890000
0!
0?
#895000
1!
1?
#900000
0!
0?
#905000
1!
1?
#910000
0!
0?
#915000
1!
1?
#920000
0!
0?
#925000
1!
1?
#930000
0!
0?
#935000
1!
1?
#940000
0!
0?
#945000
1!
1?
#950000
0!
0?
#955000
1!
1?
#960000
0!
0?
#965000
1!
1?
#970000
0!
0?
#975000
1!
1?
#980000
0!
0?
#985000
1!
1?
#990000
0!
0?
#995000
1!
1?
#1000000
0!
0?
#1005000
1!
1?
#1010000
0!
0?
#1015000
1!
1?
#1020000
0!
0?
#1025000
1!
1?
#1030000
0!
0?
#1035000
1!
1?
#1040000
0!
0?
#1045000
1!
1?
#1050000
0!
0?
#1055000
1!
1?
#1060000
0!
0?
#1065000
1!
1?
#1070000
0!
0?
#1075000
1!
1?
#1080000
0!
0?
#1085000
1!
1?
#1090000
0!
0?
#1095000
1!
1?
#1100000
0!
0?
#1105000
1!
1?
#1110000
0!
0?
#1115000
1!
1?
#1120000
0!
0?
#1125000
1!
1?
#1130000
0!
0?
#1135000
1!
1?
#1140000
0!
0?
#1145000
1!
1?
#1150000
0!
0?
#1155000
1!
1?
#1160000
0!
0?
#1165000
1!
1?
#1170000
0!
0?
#1175000
1!
1?
#1180000
0!
0?
#1185000
1!
1?
#1190000
0!
0?
#1195000
1!
1?
#1200000
0!
0?
#1205000
1!
1?
#1210000
0!
0?
#1215000
1!
1?
#1220000
0!
0?
#1225000
1!
1?
#1230000
0!
0?
#1235000
1!
1?
#1240000
0!
0?
#1245000
1!
1?
#1250000
0!
0?
#1255000
1!
1?
#1260000
0!
0?
#1265000
1!
1?
#1270000
0!
0?
#1275000
1!
1?
#1280000
0!
0?
#1285000
1!
1?
#1290000
0!
0?
#1295000
1!
1?
#1300000
0!
0?
#1305000
1!
1?
#1310000
0!
0?
#1315000
1!
1?
#1320000
0!
0?
#1325000
1!
1?
#1330000
0!
0?
#1335000
1!
1?
#1340000
0!
0?
#1345000
1!
1?
#1350000
0!
0?
#1355000
1!
1?
#1360000
0!
0?
#1365000
1!
1?
#1370000
0!
0?
#1375000
1!
1?
#1380000
0!
0?
#1385000
1!
1?
#1390000
0!
0?
#1395000
1!
1?
