HW2/SV1Lab_02022024/simulation/qsim/SV1Exs.msim.vcd
$comment
	File created using the following command:
		vcd file SV1Exs.msim.vcd -direction
$end
$date
	Fri Feb 02 18:28:31 2024
$end
$version
	ModelSim Version 10.5b
$end
$timescale
	1ps
$end

$scope module hexss_vlg_vec_tst $end
$var reg 1 ! LampTest $end
$var reg 1 " darkN $end
$var reg 4 # hexin [3:0] $end
$var wire 1 $ ss [6] $end
$var wire 1 % ss [5] $end
$var wire 1 & ss [4] $end
$var wire 1 ' ss [3] $end
$var wire 1 ( ss [2] $end
$var wire 1 ) ss [1] $end
$var wire 1 * ss [0] $end

$scope module i1 $end
$var wire 1 + gnd $end
$var wire 1 , vcc $end
$var wire 1 - unknown $end
$var tri1 1 . devclrn $end
$var tri1 1 / devpor $end
$var tri1 1 0 devoe $end
$var wire 1 1 ss[0]~output_o $end
$var wire 1 2 ss[1]~output_o $end
$var wire 1 3 ss[2]~output_o $end
$var wire 1 4 ss[3]~output_o $end
$var wire 1 5 ss[4]~output_o $end
$var wire 1 6 ss[5]~output_o $end
$var wire 1 7 ss[6]~output_o $end
$var wire 1 8 hexin[3]~input_o $end
$var wire 1 9 hexin[2]~input_o $end
$var wire 1 : hexin[1]~input_o $end
$var wire 1 ; hexin[0]~input_o $end
$var wire 1 < LampTest~input_o $end
$var wire 1 = darkN~input_o $end
$var wire 1 > ss~6_combout $end
$var wire 1 ? ss~5_combout $end
$var wire 1 @ ss~4_combout $end
$var wire 1 A ss~3_combout $end
$var wire 1 B ss~2_combout $end
$var wire 1 C ss~1_combout $end
$var wire 1 D ss~0_combout $end
$upscope $end
$upscope $end
$enddefinitions $end
#0
$dumpvars
0!
0"
b0 #
1*
1)
1(
1'
1&
1%
1$
0+
1,
x-
1.
1/
10
11
12
13
14
15
16
17
08
09
0:
0;
0<
0=
1>
1?
1@
1A
1B
1C
0D
$end
#20000
b1 #
1;
#40000
1!
b11 #
b10 #
1<
0;
1:
#60000
1"
b11 #
1=
1;
1D
0C
0B
0A
0@
0?
0>
01
02
03
04
05
06
07
0$
0%
0&
0'
0(
0)
0*
#80000
b111 #
0!
b101 #
b100 #
0;
0:
19
0<
1B
1A
1>
11
14
15
1&
1'
1*
#100000
b101 #
1;
0A
1?
0>
01
12
04
0'
1)
0*
#120000
b111 #
b110 #
0;
1:
0B
05
0&
#140000
b111 #
1;
0D
1C
1B
1A
0?
02
14
15
16
17
1$
1%
1&
1'
0)
#160000
b1111 #
b1011 #
b1001 #
b1000 #
0;
0:
09
18
1D
0C
0B
0A
04
05
06
07
0$
0%
0&
0'
#180000
b1001 #
1;
1B
15
1&
#200000
b1011 #
b1010 #
0;
1:
0B
1A
14
05
0&
1'
#220000
b1011 #
1;
0A
1?
1>
11
12
04
0'
1)
1*
#240000
b1111 #
b1101 #
b1100 #
0;
0:
19
0D
1@
0>
01
13
17
1$
1(
0*
#260000
b1101 #
1;
1D
1C
0@
0?
1>
11
02
03
16
07
0$
1%
0(
0)
1*
#280000
b1111 #
b1110 #
0;
1:
0C
1@
1?
0>
01
12
13
06
0%
1(
1)
0*
#300000
b1111 #
1;
1A
14
1'
#320000
b111 #
b11 #
b1 #
b0 #
0;
0:
09
08
0D
0A
0@
0?
02
03
04
17
1$
0'
0(
0)
#340000
b1 #
1;
1C
1B
1A
1>
11
14
15
16
1%
1&
1'
1*
#360000
b11 #
b10 #
0;
1:
1D
0B
0A
1@
0>
01
13
04
05
07
0$
0&
0'
1(
0*
#380000
b11 #
1;
1B
0@
03
15
1&
0(
#400000
b111 #
b101 #
b100 #
0;
0:
19
0C
1A
1>
11
14
06
0%
1'
1*
#420000
b101 #
1;
0A
1?
0>
01
12
04
0'
1)
0*
#440000
b111 #
b110 #
0;
1:
0B
05
0&
#460000
b111 #
1;
0D
1C
1B
1A
0?
02
14
15
16
17
1$
1%
1&
1'
0)
#480000
b1111 #
b1011 #
b1001 #
b1000 #
0;
0:
09
18
1D
0C
0B
0A
04
05
06
07
0$
0%
0&
0'
#500000
b1001 #
1;
1B
15
1&
#520000
b1011 #
b1010 #
0;
1:
0B
1A
14
05
0&
1'
#540000
b1011 #
1;
0A
1?
1>
11
12
04
0'
1)
1*
#560000
b1111 #
b1101 #
b1100 #
0;
0:
19
0D
1@
0>
01
13
17
1$
1(
0*
#580000
b1101 #
1;
1D
1C
0@
0?
1>
11
02
03
16
07
0$
1%
0(
0)
1*
#600000
b1111 #
b1110 #
0;
1:
0C
1@
1?
0>
01
12
13
06
0%
1(
1)
0*
#620000
b1111 #
1;
1A
14
1'
#640000
b111 #
b11 #
b1 #
b0 #
0;
0:
09
08
0D
0A
0@
0?
02
03
04
17
1$
0'
0(
0)
#660000
b1 #
1;
1C
1B
1A
1>
11
14
15
16
1%
1&
1'
1*
#680000
b11 #
b10 #
0;
1:
1D
0B
0A
1@
0>
01
13
04
05
07
0$
0&
0'
1(
0*
#700000
b11 #
1;
1B
0@
03
15
1&
0(
#720000
b111 #
b101 #
b100 #
0;
0:
19
0C
1A
1>
11
14
06
0%
1'
1*
#740000
b101 #
1;
0A
1?
0>
01
12
04
0'
1)
0*
#760000
b111 #
b110 #
0;
1:
0B
05
0&
#780000
b111 #
1;
0D
1C
1B
1A
0?
02
14
15
16
17
1$
1%
1&
1'
0)
#800000
b1111 #
b1011 #
b1001 #
b1000 #
0;
0:
09
18
1D
0C
0B
0A
04
05
06
07
0$
0%
0&
0'
#820000
b1001 #
1;
1B
15
1&
#840000
b1011 #
b1010 #
0;
1:
0B
1A
14
05
0&
1'
#860000
b1011 #
1;
0A
1?
1>
11
12
04
0'
1)
1*
#880000
b1111 #
b1101 #
b1100 #
0;
0:
19
0D
1@
0>
01
13
17
1$
1(
0*
#900000
b1101 #
1;
1D
1C
0@
0?
1>
11
02
03
16
07
0$
1%
0(
0)
1*
#920000
b1111 #
b1110 #
0;
1:
0C
1@
1?
0>
01
12
13
06
0%
1(
1)
0*
#940000
b1111 #
1;
1A
14
1'
#960000
b111 #
b11 #
b1 #
b0 #
0;
0:
09
08
0D
0A
0@
0?
02
03
04
17
1$
0'
0(
0)
#980000
b1 #
1;
1C
1B
1A
1>
11
14
15
16
1%
1&
1'
1*
